{"failedCount":0,"prefixedPath":"src\/test\/java\/tests\/test1.feature","packageQualifiedName":"src.test.java.tests.test1","loopIndex":-1,"relativePath":"src\/test\/java\/tests\/test1.feature","scenarioResults":[{"sectionIndex":0,"stepResults":[{"result":{"nanos":828400,"millis":0.8284,"status":"passed"},"step":{"line":4,"prefix":"Given","index":0,"text":"url 'https:\/\/reqres.in\/api\/users?page=2'"},"stepLog":"17:58:26.271 the value of env is  null \n"},{"result":{"nanos":468251900,"millis":468.2519,"status":"passed"},"step":{"line":5,"prefix":"When","index":1,"text":"method GET"},"stepLog":"17:58:26.451 request:\n1 > GET https:\/\/reqres.in\/api\/users?page=2\n1 > Host: reqres.in\n1 > Connection: Keep-Alive\n1 > User-Agent: Apache-HttpClient\/4.5.14 (Java\/17.0.11)\n1 > Accept-Encoding: gzip,deflate\n\n\n17:58:26.746 response time in milliseconds: 292\n1 < 200\n1 < Date: Tue, 15 Oct 2024 12:28:23 GMT\n1 < Content-Type: application\/json; charset=utf-8\n1 < Transfer-Encoding: chunked\n1 < Connection: keep-alive\n1 < Report-To: {\"group\":\"heroku-nel\",\"max_age\":3600,\"endpoints\":[{\"url\":\"https:\/\/nel.heroku.com\/reports?ts=1728289426&sid=c4c9725f-1ab0-44d8-820f-430df2718e11&s=NtyPA1If7eOhYJK9KyrboKTdgiySRvFHRa0Ge1nBS4k%3D\"}]}\n1 < Reporting-Endpoints: heroku-nel=https:\/\/nel.heroku.com\/reports?ts=1728289426&sid=c4c9725f-1ab0-44d8-820f-430df2718e11&s=NtyPA1If7eOhYJK9KyrboKTdgiySRvFHRa0Ge1nBS4k%3D\n1 < Nel: {\"report_to\":\"heroku-nel\",\"max_age\":3600,\"success_fraction\":0.005,\"failure_fraction\":0.05,\"response_headers\":[\"Via\"]}\n1 < X-Powered-By: Express\n1 < Access-Control-Allow-Origin: *\n1 < Etag: W\/\"406-ut0vzoCuidvyMf8arZpMpJ6ZRDw\"\n1 < Via: 1.1 vegur\n1 < Cache-Control: max-age=14400\n1 < CF-Cache-Status: HIT\n1 < Age: 3134\n1 < Vary: Accept-Encoding\n1 < Server: cloudflare\n1 < CF-RAY: 8d2fcf0789d34722-BOM\n{\"page\":2,\"per_page\":6,\"total\":12,\"total_pages\":2,\"data\":[{\"id\":7,\"email\":\"michael.lawson@reqres.in\",\"first_name\":\"Michael\",\"last_name\":\"Lawson\",\"avatar\":\"https:\/\/reqres.in\/img\/faces\/7-image.jpg\"},{\"id\":8,\"email\":\"lindsay.ferguson@reqres.in\",\"first_name\":\"Lindsay\",\"last_name\":\"Ferguson\",\"avatar\":\"https:\/\/reqres.in\/img\/faces\/8-image.jpg\"},{\"id\":9,\"email\":\"tobias.funke@reqres.in\",\"first_name\":\"Tobias\",\"last_name\":\"Funke\",\"avatar\":\"https:\/\/reqres.in\/img\/faces\/9-image.jpg\"},{\"id\":10,\"email\":\"byron.fields@reqres.in\",\"first_name\":\"Byron\",\"last_name\":\"Fields\",\"avatar\":\"https:\/\/reqres.in\/img\/faces\/10-image.jpg\"},{\"id\":11,\"email\":\"george.edwards@reqres.in\",\"first_name\":\"George\",\"last_name\":\"Edwards\",\"avatar\":\"https:\/\/reqres.in\/img\/faces\/11-image.jpg\"},{\"id\":12,\"email\":\"rachel.howell@reqres.in\",\"first_name\":\"Rachel\",\"last_name\":\"Howell\",\"avatar\":\"https:\/\/reqres.in\/img\/faces\/12-image.jpg\"}],\"support\":{\"url\":\"https:\/\/reqres.in\/#support-heading\",\"text\":\"To keep ReqRes free, contributions towards server costs are appreciated!\"}}\n\n"},{"result":{"nanos":32300,"millis":0.0323,"status":"passed"},"step":{"line":6,"prefix":"Then","index":2,"text":"status 200"}}],"executorName":"main","line":3,"name":"Test a sample Get API","description":"","durationMillis":469.1126,"startTime":1728995306172,"failed":false,"refId":"[1:3]","endTime":1728995306765,"exampleIndex":-1}],"callDepth":0,"name":"Sample API tests","description":"","resultDate":"2024-10-15 05:58:26 pm","durationMillis":469.1126,"passedCount":1}